Episode,Reward,Time,Distance
episode_1,82995.25199012346,1575,[ 216.33377778]
episode_2,113739.11272727272,2162,[ 280.27111111]
episode_3,81666.39928888889,1693,[ 229.09111111]
episode_4,6232447.321495934,10612,[ 1403.64266667]
episode_5,171803.02769230772,2675,[ 381.39333333]
episode_6,234778.17238974356,2681,[ 396.09066667]
episode_7,307864.6957511111,4725,[ 660.31377778]
episode_8,152628.2298562092,4012,[ 388.70444444]
episode_9,170926.31111111114,3618,[ 426.88888889]
episode_10,261743.90666666673,5756,[ 671.13822222]
episode_11,244991.03641600005,6106,[ 660.45288889]
episode_12,148740.37783703703,4318,[ 426.21733333]
episode_13,226968.37617777786,6362,[ 650.94177778]
episode_14,182461.56506074077,3168,[ 427.85822222]
episode_15,294954.57672804233,5062,[ 661.30488889]
episode_16,174872.0298666667,2643,[ 381.12533333]
episode_17,5022851.555555556,13831,[ 1407.26444444]
episode_18,164556.90240000002,3731,[ 392.36266667]
episode_19,6562243.835733333,10362,[ 1416.47466667]
episode_20,215201.6457142857,2925,[ 392.29466667]
episode_21,157815.17131851852,4100,[ 392.44488889]
episode_22,277781.75778765435,6731,[ 732.20355556]
episode_23,91555.46532345678,1543,[ 223.33022222]
episode_24,209730.0178051282,2793,[ 386.58266667]
episode_25,214069.36120888885,2925,[ 404.94355556]
episode_26,139331.17226666666,3556,[ 380.27066667]
episode_27,140684.46302222222,3556,[ 381.67244444]
episode_28,286726.3333333333,3675,[ 557.83333333]
episode_29,284457.0887757576,5268,[ 665.63733333]
episode_30,4734323.280592592,14225,[ 1411.26488889]
episode_31,458522.71037117124,9687,[ 1112.16044444]
episode_32,166074.49356190476,3193,[ 392.53155556]
episode_33,5458065.865531915,12268,[ 1401.492]
episode_34,4567779.66519596,14475,[ 1399.19288889]
episode_35,146168.84472514622,4375,[ 430.70844444]
episode_36,176794.09033846154,2781,[ 381.832]
episode_37,455340.77238807594,10843,[ 1181.93955556]
episode_38,150416.10287407407,4337,[ 422.62266667]
episode_39,6385150.23505691,10606,[ 1411.24266667]
episode_40,5193497.629024943,12800,[ 1407.52977778]
episode_41,110688.42730666666,4662,[ 384.97644444]
episode_42,445097.08288,8837,[ 1064.79644444]
episode_43,166449.52380952385,3112,[ 388.38222222]
episode_44,162786.9796392157,3800,[ 385.04266667]
episode_45,195519.6956444444,3231,[ 398.82444444]
episode_46,162921.2086857143,2887,[ 378.93688889]
episode_47,288133.59082328045,4987,[ 657.46755556]
episode_48,5475845.40141844,12337,[ 1404.82933333]
episode_49,162544.21414603174,3125,[ 383.15244444]
episode_50,181078.21795555556,3543,[ 395.71288889]
episode_51,147843.57119999998,3650,[ 389.472]
episode_52,218830.69239215684,3887,[ 507.21555556]
episode_53,146526.49718518517,4281,[ 386.95377778]
episode_54,316536.41125925933,5812,[ 733.62888889]
episode_55,256508.88817777782,5743,[ 664.30133333]
episode_56,271221.35930434783,5575,[ 664.192]
episode_57,227969.07577942387,6568,[ 663.50088889]
episode_58,5197512.597768708,13025,[ 1406.62622222]
episode_59,148866.51259259257,3212,[ 377.19555556]
episode_60,417518.9743349594,10550,[ 1113.77511111]
episode_61,214696.04684967324,4093,[ 508.05022222]
episode_62,144742.83093333332,3650,[ 381.70577778]
episode_63,385732.3665529716,11343,[ 1098.61777778]
episode_64,193132.03839999996,3168,[ 398.37466667]
episode_65,163998.0928,2950,[ 383.89066667]
episode_66,124919.62311111108,4306,[ 381.68]
episode_67,178597.9331318519,3425,[ 389.56622222]
episode_68,137617.48329411767,3793,[ 389.29333333]
episode_69,5080052.619662222,13168,[ 1390.85022222]
episode_70,5347424.6400000015,12525,[ 1412.172]
episode_71,264189.1802898551,5487,[ 657.95555556]
episode_72,4748620.812641975,14181,[ 1404.11733333]
episode_73,5535630.303845413,12081,[ 1401.70311111]
episode_74,5436299.787851852,12462,[ 1410.31644444]
episode_75,178580.57113162393,2762,[ 386.10088889]
episode_76,165453.07875555553,3600,[ 416.96844444]
episode_77,4972860.410529913,13593,[ 1409.29511111]
episode_78,118834.92693333335,4412,[ 386.83244444]
episode_79,306268.32877037034,5631,[ 670.85644444]
episode_80,4757272.559144034,14400,[ 1405.19822222]
episode_81,5679628.607841977,11656,[ 1413.37422222]
episode_82,4740722.170828283,14425,[ 1419.53244444]
episode_83,443968.37722751324,11037,[ 1176.95111111]
episode_84,4533795.445397979,14650,[ 1393.25244444]
episode_85,176080.6912,2806,[ 382.11955556]
episode_86,228257.8794666667,6387,[ 651.42088889]
episode_87,205864.32362911876,7381,[ 645.99911111]
episode_88,4528187.6677115,15031,[ 1393.30355556]
episode_89,120433.43696161616,5381,[ 390.18844444]
episode_90,404768.50058479526,9725,[ 1062.23777778]
episode_91,298883.7936761905,5093,[ 659.968]
episode_92,130606.10007843138,3775,[ 379.15022222]
episode_93,4157857.569185186,15950,[ 1394.63022222]
episode_94,5454083.354074076,12712,[ 1415.41955556]
episode_95,4930933.661538463,13593,[ 1406.48888889]
episode_96,134105.69035294116,3800,[ 392.96]
episode_97,179955.91262814816,3462,[ 423.67822222]
episode_98,224317.313015873,6937,[ 672.64444444]
episode_99,4424882.807017544,15212,[ 1401.21288889]
episode_100,158403.09342814816,3287,[ 392.03511111]
episode_101,110319.54431999999,4843,[ 375.54311111]
episode_102,4581266.434068687,14406,[ 1402.57422222]
episode_103,208610.92815238095,2775,[ 394.07288889]
episode_104,4872495.87674074,14175,[ 1409.624]
episode_105,4864155.124997904,13950,[ 1407.69822222]
episode_106,66016.92573737373,2087,[ 210.90444444]
episode_107,4580576.617142856,14743,[ 1409.78]
episode_108,205064.7253333334,7656,[ 660.64666667]
episode_109,224590.95324444445,7131,[ 662.11955556]
episode_110,4352136.346198831,15018,[ 1393.03555556]
episode_111,126228.14496507935,5006,[ 413.97911111]
episode_112,4815429.712065844,14156,[ 1411.26044444]
episode_113,5083491.726222222,13012,[ 1405.83288889]
episode_114,4355193.021468928,15587,[ 1416.95555556]
episode_115,4789224.338515724,13968,[ 1396.01422222]
episode_116,4550439.451927273,14543,[ 1397.11822222]
episode_117,4756206.510090534,14356,[ 1411.30622222]
episode_118,4545634.539830304,14637,[ 1397.14044444]
episode_119,134351.35924705883,3931,[ 381.476]
episode_120,132811.73500653598,4043,[ 386.39777778]
episode_121,134501.75799215684,3825,[ 388.54844444]
episode_122,4673125.898602019,14543,[ 1400.02355556]
episode_123,4920778.739692307,13737,[ 1411.02266667]
episode_124,221021.25973333334,6912,[ 666.18533333]
episode_125,4356708.095019158,15368,[ 1404.07777778]
episode_126,4409292.226206895,15537,[ 1407.26222222]
episode_127,4161071.1235847003,16150,[ 1408.63822222]
episode_128,4440756.630068965,15337,[ 1415.06177778]
episode_129,133573.5466666667,4818,[ 417.41733333]
episode_130,3730166.044656718,18075,[ 1392.908]
episode_131,4417461.099539963,15150,[ 1393.41288889]
episode_132,4155243.4521530066,16175,[ 1407.66533333]
episode_133,427398.4062707072,11637,[ 1182.67822222]
episode_134,394646.6214697675,11262,[ 1109.892]
episode_135,138394.53795555557,3681,[ 374.84977778]
episode_136,353625.14256410266,13906,[ 1169.63333333]
episode_137,113649.40657777779,4700,[ 390.27955556]
episode_138,4490979.975619048,14825,[ 1398.93466667]
episode_139,4023663.158824372,16662,[ 1392.86177778]
episode_140,125432.75551604941,4225,[ 382.20977778]
episode_141,4187451.716740741,15937,[ 1398.30311111]
episode_142,158989.03419259257,4081,[ 390.70044444]
episode_143,3983695.2380952383,16700,[ 1394.29333333]
episode_144,3685999.5223880596,17843,[ 1389.3]
episode_145,4030000.8731992957,16687,[ 1399.05911111]
episode_146,111888.46186666668,4543,[ 374.96133333]
episode_147,204208.50853925926,7600,[ 660.84044444]
episode_148,441041.7271466666,11881,[ 1174.872]
episode_149,122626.802184127,5156,[ 411.42044444]
episode_150,4154982.3944043713,16168,[ 1403.83466667]
episode_151,4476904.77037037,15200,[ 1408.42222222]
episode_152,4690772.252444443,14206,[ 1398.28266667]
episode_153,4634645.869714287,14725,[ 1413.248]
episode_154,3917423.4773897706,16818,[ 1384.63688889]
episode_155,4416058.12475096,15337,[ 1414.15288889]
episode_156,213743.11282758624,7343,[ 664.28222222]
episode_157,4491050.161247564,15162,[ 1411.31444444]
episode_158,3869148.3744273502,17600,[ 1402.92888889]
episode_159,3937364.414358974,17350,[ 1411.78666667]
episode_160,4481354.371923373,15312,[ 1415.80177778]
episode_161,3819099.0450639753,17793,[ 1398.34755556]
episode_162,4292986.666666667,16118,[ 1406.]
episode_163,4149228.5342076486,16337,[ 1404.87866667]
episode_164,3734874.767495854,18012,[ 1395.91111111]
episode_165,3956082.3571111113,17012,[ 1406.10711111]
episode_166,3898034.574222221,17306,[ 1402.63644444]
episode_167,176979.03688888886,3531,[ 388.28222222]
episode_168,4394408.673103451,15418,[ 1404.73822222]
episode_169,4161193.8450418944,16243,[ 1405.43511111]
episode_170,4134126.95260215,16387,[ 1400.81688889]
episode_171,345038.67585306126,12875,[ 1066.708]
episode_172,4227528.19508148,15750,[ 1405.17911111]
episode_173,4109791.1669841264,16868,[ 1404.71377778]
episode_174,3671149.6315816995,18131,[ 1397.06177778]
episode_175,384556.1092293501,14006,[ 1179.92044444]
episode_176,3763137.2165152975,18225,[ 1418.82577778]
episode_177,3742508.8025472625,18056,[ 1394.53244444]
episode_178,332017.06666666677,12175,[ 1052.88888889]
episode_179,3646085.9690666664,18943,[ 1411.89822222]
episode_180,4060342.9451851845,16850,[ 1402.91333333]
episode_181,4135886.521821493,16262,[ 1403.60222222]
episode_182,3436315.195616438,19743,[ 1398.34]
episode_183,3842414.3385858596,17593,[ 1405.13822222]
episode_184,127535.74400000002,4900,[ 384.7]
episode_185,62397.229985185186,2400,[ 213.29955556]
episode_186,3919717.746666668,17012,[ 1401.15022222]
episode_187,4341995.072000001,15950,[ 1412.184]
episode_188,217391.37158095237,7093,[ 657.50933333]
episode_189,4498067.765079365,14800,[ 1401.89111111]
episode_190,4513434.549146198,15168,[ 1397.21155556]
episode_191,3358249.8035315317,19906,[ 1392.49644444]
episode_192,184577.62844444442,4825,[ 504.86222222]
episode_193,3666125.8251851867,18387,[ 1393.58022222]
episode_194,3869370.76797265,17325,[ 1400.75911111]
episode_195,3874441.5062626246,17718,[ 1405.63511111]
episode_196,229225.8419965812,6556,[ 647.13688889]
episode_197,3818440.5104079605,17968,[ 1395.75066667]
episode_198,362188.8269385621,13550,[ 1178.51866667]
episode_199,235933.97136410262,6393,[ 662.62133333]
episode_200,4265695.0912,15975,[ 1398.772]
episode_201,4194483.620138434,16312,[ 1412.92355556]
episode_202,4256603.705853106,15812,[ 1400.44844444]
episode_203,4053307.7897777795,17212,[ 1413.04088889]
episode_204,96626.6323478261,5506,[ 384.98]
episode_205,3948896.6399999997,17025,[ 1406.30222222]
episode_206,193464.33773333335,8100,[ 666.88844444]
episode_207,3493839.203755868,19131,[ 1390.48533333]
episode_208,241806.5305162393,6481,[ 667.80355556]
episode_209,174199.29173333332,8712,[ 647.60933333]
episode_210,3845922.6539999996,17100,[ 1385.16933333]
episode_211,180832.39173856215,8756,[ 664.13555556]
episode_212,3693924.9576119403,17918,[ 1389.78533333]
episode_213,4140062.7663369183,16406,[ 1403.81022222]
episode_214,132716.84571428574,5000,[ 430.10088889]
episode_215,4035166.124924161,16775,[ 1406.55688889]
episode_216,3662475.2294603186,18825,[ 1414.23911111]
episode_217,4051592.6208547004,17243,[ 1410.17777778]
episode_218,159285.32914354355,9450,[ 650.56044444]
episode_219,3865485.859008547,17275,[ 1394.63022222]
episode_220,191755.0224,8212,[ 659.632]
episode_221,3606213.3394285715,18750,[ 1403.664]
episode_222,115450.7325835749,5525,[ 425.10355556]
episode_223,3564890.684093898,18987,[ 1405.40177778]
episode_224,3912316.4949880335,17487,[ 1408.77377778]
episode_225,3635835.8947246373,18487,[ 1395.22533333]
episode_226,4048338.9866666663,16731,[ 1403.94]
episode_227,3531795.68237037,19406,[ 1393.88533333]
episode_228,3626051.1512380945,18693,[ 1408.87866667]
episode_229,3058522.7778107002,21981,[ 1390.42488889]
episode_230,3812650.7981675216,17518,[ 1390.63511111]
episode_231,3549036.9704663525,19187,[ 1397.90977778]
episode_232,3767614.1022885563,17887,[ 1400.64666667]
episode_233,3778674.3751111114,18031,[ 1407.72844444]
episode_234,3546668.7306917063,19118,[ 1401.70488889]
episode_235,3791664.323764706,18250,[ 1403.21955556]
episode_236,3928587.0454949494,17781,[ 1416.31022222]
episode_237,3746605.6214925386,18000,[ 1398.29866667]
episode_238,3740291.8457313445,17825,[ 1398.18533333]
episode_239,3884894.5410547247,17725,[ 1413.87066667]
episode_240,3480772.7233802807,19193,[ 1387.02666667]
episode_241,3567581.218133334,18675,[ 1397.07911111]
episode_242,101763.69829494951,5193,[ 387.17511111]
episode_243,3427769.227689498,19537,[ 1397.10533333]
episode_244,3766744.327641791,18018,[ 1399.82622222]
episode_245,3651125.638095238,18806,[ 1406.13333333]
episode_246,3843270.741333333,17306,[ 1396.53733333]
episode_247,3734058.009970589,18250,[ 1407.2355]
episode_248,106296.35562328043,4943,[ 385.18488889]
episode_249,3800553.8497508406,17762,[ 1397.51155556]
episode_250,3515111.2533333325,19056,[ 1395.19733333]
