Episode,Reward,Time,Distance
episode_1,390.1804444444444,2712,[ 390.18044444]
episode_2,216.39866666666666,1787,[ 216.39866667]
episode_3,387.31644444444447,2881,[ 387.31644444]
episode_4,654.2844444444444,5575,[ 654.28444444]
episode_5,381.7568888888889,2362,[ 381.75688889]
episode_6,429.0693333333333,2768,[ 429.06933333]
episode_7,387.62266666666665,2787,[ 387.62266667]
episode_8,661.9968888888889,4706,[ 661.99688889]
episode_9,668.2053333333334,4906,[ 668.20533333]
episode_10,380.89422222222225,2606,[ 380.89422222]
episode_11,1403.0115555555556,11118,[ 1403.01155556]
episode_12,376.92355555555554,2418,[ 376.92355556]
episode_13,384.3293333333333,2975,[ 384.32933333]
episode_14,373.8666666666667,3162,[ 373.86666667]
episode_15,434.46133333333336,3056,[ 434.46133333]
episode_16,670.0564444444445,5175,[ 670.05644444]
episode_17,378.07822222222217,2975,[ 378.07822222]
episode_18,392.0715555555555,2725,[ 392.07155556]
episode_19,380.82133333333326,2531,[ 380.82133333]
episode_20,384.94044444444444,3018,[ 384.94044444]
episode_21,397.9564444444444,2556,[ 397.95644444]
episode_22,671.2093333333333,4600,[ 671.20933333]
episode_23,428.74844444444443,2993,[ 428.74844444]
episode_24,435.68311111111115,3306,[ 435.68311111]
episode_25,426.66800000000006,3443,[ 426.668]
episode_26,661.6088888888889,4400,[ 661.60888889]
episode_27,393.56622222222217,2962,[ 393.56622222]
episode_28,283.22711111111107,2625,[ 283.22711111]
episode_29,393.5728888888889,3000,[ 393.57288889]
episode_30,383.86133333333333,2781,[ 383.86133333]
episode_31,386.556,2543,[ 386.556]
episode_32,224.99333333333334,1912,[ 224.99333333]
episode_33,1113.7733333333333,8431,[ 1113.77333333]
episode_34,281.4457777777778,1856,[ 281.44577778]
episode_35,660.5133333333334,4306,[ 660.51333333]
episode_36,392.91111111111104,2387,[ 392.91111111]
episode_37,1169.8475555555553,9712,[ 1169.84755556]
episode_38,388.25244444444445,3368,[ 388.25244444]
episode_39,665.1431111111112,4443,[ 665.14311111]
episode_40,390.6102222222222,2725,[ 390.61022222]
episode_41,426.72311111111105,3206,[ 426.72311111]
episode_42,1071.8457777777778,8012,[ 1071.84577778]
episode_43,395.18399999999997,2600,[ 395.184]
episode_44,395.7982222222222,2468,[ 395.79822222]
episode_45,398.77644444444445,2562,[ 398.77644444]
episode_46,394.6137777777778,2675,[ 394.61377778]
episode_47,386.7075555555556,3031,[ 386.70755556]
episode_48,392.59822222222226,2668,[ 392.59822222]
episode_49,427.56311111111114,3231,[ 427.56311111]
episode_50,393.168,3025,[ 393.168]
episode_51,395.53200000000004,3150,[ 395.532]
episode_52,668.5342222222223,4762,[ 668.53422222]
episode_53,661.9662222222221,4675,[ 661.96622222]
episode_54,365.3408888888889,3200,[ 365.34088889]
episode_55,433.14177777777775,2993,[ 433.14177778]
episode_56,1116.8444444444442,7443,[ 1116.84444444]
episode_57,671.628,4675,[ 671.628]
episode_58,394.82533333333333,2937,[ 394.82533333]
episode_59,383.17066666666665,2881,[ 383.17066667]
episode_60,389.4155555555556,2887,[ 389.41555556]
episode_61,391.66266666666667,3268,[ 391.66266667]
episode_62,391.93955555555556,2950,[ 391.93955556]
episode_63,421.0328888888889,2662,[ 421.03288889]
episode_64,402.89511111111113,2618,[ 402.89511111]
episode_65,381.4582222222223,2800,[ 381.45822222]
episode_66,214.604,1806,[ 214.604]
episode_67,398.1324444444445,2781,[ 398.13244444]
episode_68,389.6115555555556,2587,[ 389.61155556]
episode_69,391.54400000000004,2862,[ 391.544]
episode_70,393.86977777777776,2400,[ 393.86977778]
episode_71,662.5577777777778,4256,[ 662.55777778]
episode_72,669.3235555555557,4925,[ 669.32355556]
episode_73,388.21644444444445,3387,[ 388.21644444]
episode_74,386.8911111111112,2925,[ 386.89111111]
episode_75,286.4146666666667,1968,[ 286.41466667]
episode_76,388.47555555555556,2887,[ 388.47555556]
episode_77,421.74444444444447,3256,[ 421.74444444]
episode_78,652.6253333333333,4668,[ 652.62533333]
episode_79,1074.832,7218,[ 1074.832]
episode_80,382.9497777777778,2981,[ 382.94977778]
episode_81,663.1537777777778,4587,[ 663.15377778]
episode_82,439.8871111111111,3556,[ 439.88711111]
episode_83,379.1613333333333,2881,[ 379.16133333]
episode_84,390.7448888888889,2750,[ 390.74488889]
episode_85,434.01866666666666,3156,[ 434.01866667]
episode_86,391.6342222222222,2768,[ 391.63422222]
episode_87,663.3817777777779,4606,[ 663.38177778]
episode_88,385.62533333333334,2668,[ 385.62533333]
episode_89,376.5031111111111,2618,[ 376.50311111]
episode_90,656.3497777777777,3993,[ 656.34977778]
episode_91,398.1479999999999,3268,[ 398.148]
episode_92,385.5973333333333,2862,[ 385.59733333]
episode_93,433.66,2706,[ 433.66]
episode_94,668.4506666666667,4318,[ 668.45066667]
episode_95,670.9311111111111,4325,[ 670.93111111]
episode_96,651.3853333333335,4106,[ 651.38533333]
episode_97,382.9328888888889,2350,[ 382.93288889]
episode_98,1117.8564444444444,8037,[ 1117.85644444]
episode_99,383.8506666666667,2568,[ 383.85066667]
episode_100,385.76933333333335,2437,[ 385.76933333]
episode_101,385.5231111111111,2975,[ 385.52311111]
episode_102,387.85422222222223,2325,[ 387.85422222]
episode_103,220.88622222222224,1531,[ 220.88622222]
episode_104,658.0355555555556,4418,[ 658.03555556]
episode_105,666.9511111111111,4275,[ 666.95111111]
episode_106,214.492,1487,[ 214.492]
episode_107,398.97333333333336,2943,[ 398.97333333]
episode_108,848.3000000000001,5262,[ 848.3]
episode_109,376.5284444444444,2368,[ 376.52844444]
episode_110,379.692,2537,[ 379.692]
episode_111,655.1106666666667,3737,[ 655.11066667]
episode_112,280.1617777777778,2743,[ 280.16177778]
episode_113,657.7133333333331,4787,[ 657.71333333]
episode_114,390.3955555555556,2975,[ 390.39555556]
episode_115,281.86400000000003,1868,[ 281.864]
episode_116,387.79022222222227,2400,[ 387.79022222]
episode_117,390.8431111111111,2718,[ 390.84311111]
episode_118,218.88266666666667,1562,[ 218.88266667]
episode_119,225.8115555555556,1968,[ 225.81155556]
episode_120,386.9173333333334,2693,[ 386.91733333]
episode_121,384.356,2375,[ 384.356]
episode_122,377.97200000000004,2575,[ 377.972]
episode_123,389.4888888888889,2662,[ 389.48888889]
episode_124,418.708,2593,[ 418.708]
episode_125,671.7422222222223,4850,[ 671.74222222]
episode_126,383.7257777777778,2312,[ 383.72577778]
episode_127,1114.648,7487,[ 1114.648]
episode_128,435.1551111111111,2818,[ 435.15511111]
episode_129,400.0897777777778,2437,[ 400.08977778]
episode_130,393.26444444444445,2606,[ 393.26444444]
episode_131,441.59422222222224,2687,[ 441.59422222]
episode_132,383.5591111111111,2700,[ 383.55911111]
episode_133,392.3844444444445,2662,[ 392.38444444]
episode_134,424.46088888888886,2562,[ 424.46088889]
episode_135,661.8337777777778,4918,[ 661.83377778]
episode_136,399.66977777777777,3106,[ 399.66977778]
episode_137,428.5644444444444,2518,[ 428.56444444]
episode_138,662.3684444444444,5156,[ 662.36844444]
episode_139,385.016,3337,[ 385.016]
episode_140,1130.6244444444446,7743,[ 1130.62444444]
episode_141,426.32533333333333,3150,[ 426.32533333]
episode_142,287.4271111111111,1918,[ 287.42711111]
episode_143,394.8973333333334,3687,[ 394.89733333]
episode_144,389.1533333333333,2662,[ 389.15333333]
episode_145,660.7853333333334,3600,[ 660.78533333]
episode_146,429.98266666666666,2881,[ 429.98266667]
episode_147,382.46,2637,[ 382.46]
episode_148,394.10088888888885,2662,[ 394.10088889]
episode_149,388.46711111111114,3131,[ 388.46711111]
episode_150,390.8573333333334,2893,[ 390.85733333]
episode_151,669.1577777777778,4612,[ 669.15777778]
episode_152,435.82400000000007,2962,[ 435.824]
episode_153,389.5635555555556,2875,[ 389.56355556]
episode_154,396.5266666666667,2518,[ 396.52666667]
episode_155,218.9248888888889,1943,[ 218.92488889]
episode_156,385.6902222222223,2700,[ 385.69022222]
episode_157,1404.1519999999998,9212,[ 1404.152]
episode_158,387.7302222222222,2543,[ 387.73022222]
episode_159,1116.016,6931,[ 1116.016]
episode_160,387.53644444444444,2675,[ 387.53644444]
episode_161,389.0822222222223,2343,[ 389.08222222]
episode_162,437.144,2912,[ 437.144]
episode_163,285.9857777777778,2187,[ 285.98577778]
episode_164,672.6982222222222,4050,[ 672.69822222]
episode_165,434.85511111111117,2850,[ 434.85511111]
episode_166,392.5564444444444,2356,[ 392.55644444]
episode_167,670.4657777777777,3643,[ 670.46577778]
episode_168,669.7213333333334,3662,[ 669.72133333]
episode_169,388.916,2300,[ 388.916]
episode_170,389.3475555555556,2581,[ 389.34755556]
episode_171,660.8973333333333,4356,[ 660.89733333]
episode_172,224.33022222222223,1625,[ 224.33022222]
episode_173,666.6542222222223,5212,[ 666.65422222]
episode_174,664.5062222222222,4081,[ 664.50622222]
episode_175,1112.816888888889,7725,[ 1112.81688889]
episode_176,390.9662222222222,2406,[ 390.96622222]
episode_177,394.8951111111111,2462,[ 394.89511111]
episode_178,391.18000000000006,2700,[ 391.18]
episode_179,658.3773333333334,4225,[ 658.37733333]
episode_180,382.7066666666667,2300,[ 382.70666667]
episode_181,441.8195555555556,2600,[ 441.81955556]
episode_182,392.0195555555556,2843,[ 392.01955556]
episode_183,289.46,1950,[ 289.46]
episode_184,422.56533333333334,2862,[ 422.56533333]
episode_185,661.0168888888891,4000,[ 661.01688889]
episode_186,436.8688888888889,2606,[ 436.86888889]
episode_187,392.56399999999996,2468,[ 392.564]
episode_188,391.76088888888887,2800,[ 391.76088889]
episode_189,384.5635555555556,2337,[ 384.56355556]
episode_190,278.9964444444445,1818,[ 278.99644444]
episode_191,382.7,2625,[ 382.7]
episode_192,379.3808888888889,2606,[ 379.38088889]
episode_193,397.6537777777778,2937,[ 397.65377778]
episode_194,730.348,4193,[ 730.348]
episode_195,426.2088888888889,2556,[ 426.20888889]
episode_196,422.61288888888885,2937,[ 422.61288889]
episode_197,390.26088888888887,2812,[ 390.26088889]
episode_198,431.8422222222222,4768,[ 431.84222222]
episode_199,1107.9097777777777,6812,[ 1107.90977778]
episode_200,440.2284444444445,2981,[ 440.22844444]
episode_201,382.1364444444444,2462,[ 382.13644444]
episode_202,666.5617777777778,4100,[ 666.56177778]
episode_203,664.1808888888891,4056,[ 664.18088889]
episode_204,389.47777777777776,2337,[ 389.47777778]
episode_205,542.1742222222223,3031,[ 542.17422222]
episode_206,376.86444444444453,2281,[ 376.86444444]
episode_207,380.7728888888889,3043,[ 380.77288889]
episode_208,663.8235555555556,4256,[ 663.82355556]
episode_209,1404.124888888889,14675,[ 1404.12488889]
episode_210,650.0351111111111,3993,[ 650.03511111]
episode_211,218.64666666666668,1550,[ 218.64666667]
episode_212,394.55511111111116,2906,[ 394.55511111]
episode_213,392.7982222222222,2468,[ 392.79822222]
episode_214,384.9417777777778,2487,[ 384.94177778]
episode_215,430.15644444444445,2600,[ 430.15644444]
episode_216,435.124,2875,[ 435.124]
episode_217,391.0084444444445,2400,[ 391.00844444]
episode_218,390.64977777777773,2331,[ 390.64977778]
episode_219,224.0328888888889,1781,[ 224.03288889]
episode_220,378.716,2506,[ 378.716]
episode_221,670.6453333333334,3637,[ 670.64533333]
episode_222,388.7253333333333,2662,[ 388.72533333]
episode_223,382.9053333333334,2362,[ 382.90533333]
episode_224,392.68444444444447,2743,[ 392.68444444]
episode_225,723.2346666666667,4075,[ 723.23466667]
episode_226,674.2137777777779,3887,[ 674.21377778]
episode_227,380.23822222222225,2587,[ 380.23822222]
episode_228,393.36533333333335,2750,[ 393.36533333]
episode_229,391.2844444444444,2693,[ 391.28444444]
episode_230,392.4942222222222,2368,[ 392.49422222]
episode_231,434.50266666666664,2775,[ 434.50266667]
episode_232,440.9053333333334,2556,[ 440.90533333]
episode_233,391.01244444444444,2393,[ 391.01244444]
episode_234,214.676,1568,[ 214.676]
episode_235,435.81866666666673,2587,[ 435.81866667]
episode_236,389.1888888888889,2375,[ 389.18888889]
episode_237,380.7951111111111,2550,[ 380.79511111]
episode_238,223.16444444444448,1550,[ 223.16444444]
episode_239,215.97555555555556,1493,[ 215.97555556]
episode_240,389.7600000000001,2668,[ 389.76]
episode_241,437.2386666666667,2943,[ 437.23866667]
episode_242,386.69022222222225,2668,[ 386.69022222]
episode_243,436.13911111111116,3037,[ 436.13911111]
episode_244,391.67511111111116,2362,[ 391.67511111]
episode_245,672.1431111111112,3637,[ 672.14311111]
episode_246,436.00666666666666,2568,[ 436.00666667]
episode_247,391.71288888888887,2425,[ 391.71288889]
episode_248,672.4986666666666,4525,[ 672.49866667]
episode_249,382.6697777777777,2543,[ 382.66977778]
episode_250,389.2711111111111,2350,[ 389.27111111]
